{
  "packagename":"org.ankus.mapreduce.algorithms.statistics.numericstats",
  "author":"onycom",
  "create":"2016-04-14",
  "applist":[
	{
	"appname":"Numeric Statistics (Distribution)", 
	"appicon":"res/images/stats_numeric.png",		
	"classname":"NumericStatistics",
	"version": "0.1",
	"appgroup": "STATISTICS",	
	"nexus":"ankus-core2-numeric-statistic-1.1.0.jar",	
	"params":[		
			{
			 "type":"columnindex",
			 "name":"indexList",
			 "description":"Target Attributes(Index) List",
			 "required":"Y",
			 "iotype":"I"		 
			},
			{
			 "type":"columnindex",
			 "name":"exceptionIndexList",
			 "description":"Exception Attributes(Index) List",
			 "required":"N",
			 "iotype":"I"		
			}			
		]	
	}
  ]
}